﻿SchoolId,Name,AddressLine1,AddressLine2,Suburb,StateId,PostCode,Contact,Phone,LastUpdated,LastUpdatedBy,IsActive,HighSchoolRegionId,PrimarySchoolRegionId
1,Ainslie School,Donaldson Street,NULL,Braddon,1,2612,info@ainslies.act.edu.au,6142 3060,6/24/2016 1:17,info@schoolsportact.org.au,1,High School North,North Gungahlin
5,Aranda Primary School,1 Banambila Street,NULL,Aranda,1,2614,info@arandaps.act.edu.au,6205 5977,6/24/2016 1:09,info@schoolsportact.org.au,1,High School North,Belconnen
6,Charnwood-Dunlop School,Bettington Circuit ,NULL,Charnwood,1,2615,info@charnwoodps.act.edu.au,6205 7322,6/24/2016 1:10,info@schoolsportact.org.au,1,High School North,Belconnen
7,Alfred Deakin High School,Denison Street,NULL,Deakin,1,2600,info@adhs.act.edu.au,6142 3888,2/26/2016 1:40,peter.ciceran@naxikku.com,1,NULL,NULL
9,Amaroo School,135 Katherine Avenue,NULL,Amaroo,1,2914,info@amaroos.act.edu.au ,Amaroo School,6/24/2016 1:18,info@schoolsportact.org.au,1,High School North,North Gungahlin
10,Arawang Primary School,Nemarang Crescent,NULL,Weston Creek,1,2611,NULL,6205 6877,6/24/2016 1:30,info@schoolsportact.org.au,1,High School South,South Weston
11,Belconnen High School,Murranji Street,NULL,Hawker,1,2614,info_blch@ed.act.edu.au,6205 6844,6/24/2016 2:03,info@schoolsportact.org.au,1,High School North,NULL
12,Black Mountain School,48 Dryandra Street,NULL,O'Connor,1,2602,blackmtnschool@ed.act.edu.au,6205 6377,2/26/2016 1:46,peter.ciceran@naxikku.com,1,NULL,NULL
13,Bonython Primary School,64 Hurtle Avenue,NULL,Bonython,1,2905,bonythonps@ed.act.edu.au,6205 6565,6/24/2016 1:41,info@schoolsportact.org.au,1,High School South,Tuggeranong
14,Brindabella Christian College,136 Brigalow Street,NULL,Lyneham,1,2602,bcc@bcc.act.edu.au,6247 4644,6/24/2016 1:19,info@schoolsportact.org.au,1,High School North,North Gungahlin
15,Inactive Burgmann Anglican School (Valley Campus) do not use,Gungahlin Drive & The Valley Avenue,NULL,Gungahlin,1,2912,NULL,6255 7700,4/4/2016 5:51,operations@schoolsportact.org.au,0,NULL,NULL
16,Burgmann Anglican School ,Corner Francis Forde Boulevard & Hurrell Streets,NULL,Forde,1,2914,NULL,6204 3299,6/24/2016 1:20,info@schoolsportact.org.au,1,High School North,North Gungahlin
17,Calwell High School,111 Casey Crescent,NULL,Calwell,1,2905,info@calwellhs.act.edu.au,6205 6833,2/26/2016 1:52,peter.ciceran@naxikku.com,1,NULL,NULL
18,Calwell Primary School,Downard Street,NULL,Calwell,1,2905,contact@calwellps.act.edu.au,6205 6911,3/7/2017 23:48,coordinator@schoolsportact.org.au,1,High School South,Tuggeranong
19,Campbell High School,Treloar Crescent ,NULL,Campbell,1,2612,info@campbellhs.act.edu.au,6142 3166,2/26/2016 1:56,peter.ciceran@naxikku.com,1,NULL,NULL
20,Campbell Primary School,Chauvel Street,NULL,Campbell,1,2612,campbellps@ed.act.edu.au,6142 3580,6/24/2016 1:20,info@schoolsportact.org.au,1,High School North,North Gungahlin
21,Canberra College,2 Launceston Street,NULL,Phillip,1,2606,info@canberrac.act.edu.au,6142 3288,2/26/2016 2:16,peter.ciceran@naxikku.com,1,NULL,NULL
22,Canberra Girls Grammar School (Senior),Melbourne Avenue,NULL,Deakin,1,2600,cggs@cggs.act.edu.au,6202 6400,3/17/2016 11:32,operations@schoolsportact.org.au,1,NULL,NULL
23,Canberra Grammar School (Senior),40 Monaro Crescent,NULL,Red Hill,1,2603,enquiries@cgs.act.edu.au,6260 9700,3/21/2016 3:47,operations@schoolsportact.org.au,1,NULL,NULL
24,Canberra High School,Bindubi Street,NULL,Macquarie,1,2614,info@canberrahs.act.edu.au,6205 7000,2/26/2016 2:20,peter.ciceran@naxikku.com,1,NULL,NULL
25,Inactive Caroline Chisholm School (Senior Campus) do not use,108 Hambidge Crescent,NULL,Chisholm,1,2905,info@chisholm.act.edu.au,6142 3550,4/4/2016 5:51,operations@schoolsportact.org.au,0,NULL,NULL
26,Caroline Chisholm School (P-10),Hambidge Crescent,NULL,Chisholm,1,2905,info@chisholm.act.edu.au,6142 3555,6/24/2016 1:44,info@schoolsportact.org.au,1,High School South,Tuggeranong
27,Chapman Primary School,Perry Drive,NULL,Chapman,1,2611,school.information@chapmanps.act.edu.au,6205 7300,6/24/2016 1:31,info@schoolsportact.org.au,1,High School South,South Weston
29,Charles Conder Primary School,134 Tom Roberts Avenue,NULL,Conder,1,2906, info@conderps.act.edu.au,6142 0177,6/24/2016 1:44,info@schoolsportact.org.au,1,High School South,Tuggeranong
30,Charles Weston School,80 Woodberry Avenue,NULL,Coombs,1,2611,coombsps@ed.act.edu.au,6142 0404 ,6/24/2016 1:31,info@schoolsportact.org.au,1,High School South,South Weston
31,Covenant Christian School Canberra,1 Woodcock Drive,NULL,Gordon,1,2906,NULL,6294 2455,6/24/2016 1:44,info@schoolsportact.org.au,1,High School South,Tuggeranong
32,Curtin Primary School,Theodore Street,NULL,Curtin,1,2605,info@curtinps.act.edu.au,6205 5622,6/24/2016 1:31,info@schoolsportact.org.au,1,High School South,South Weston
33,Daramalan College,121 Cowper Street,NULL,Dickson,1,2602,info@daramalan.act.edu.au,6245 6300,2/26/2016 5:03,peter.ciceran@naxikku.com,1,NULL,NULL
36,Dickson College,Phillip Avenue,NULL,Dickson,1,2602,info@dicksonc.act.edu.au,6142 0140,2/26/2016 5:05,peter.ciceran@naxikku.com,1,NULL,NULL
37,Duffy Primary School,47 Burrinjuck Crescent ,NULL,Duffy,1,NULL,info@duffyps.act.edu.au,6205 6022,6/24/2016 1:32,info@schoolsportact.org.au,1,High School South,South Weston
38,Emmaus Christian School,73 Davenport Street,NULL,Dickson,1,2602,emmaus@emmaus.act.edu.au,6247 7151,6/24/2016 1:20,info@schoolsportact.org.au,1,High School North,North Gungahlin
39,Erindale College,115 McBryde Cres,NULL,Wanniassa,1,2903,info@erindalec.act.edu.au,6142 2977,2/26/2016 5:08,peter.ciceran@naxikku.com,1,NULL,NULL
40,Evatt Primary School,Heydon Crescent,NULL,Evatt,1,2617,info@evattps.act.edu.au,6205 5999,6/24/2016 1:10,info@schoolsportact.org.au,1,High School North,Belconnen
41,Fadden Primary School,Hanlon Crescent,NULL,Fadden,1,2904,info@faddenps.act.edu.au,6205 6011,6/24/2016 1:44,info@schoolsportact.org.au,1,High School South,Tuggeranong
43,Farrer Primary School,1 Lambrigg Street,NULL,Farrer,1,2607,info@farrerps.act.edu.au,6205 7911,3/2/2017 22:15,info@schoolsportact.org.au,1,High School South,Tuggeranong
45,Florey Primary School,Ratcliffe Crescent,NULL,Florey,1,2615,admin@floreyps.act.edu.au,6205 8011,6/24/2016 1:10,info@schoolsportact.org.au,1,High School North,Belconnen
46,Forrest Primary School,Hobart Avenue,NULL,Forrest,1,2603, info@forrestps.act.edu.au,6205 5644,6/24/2016 1:32,info@schoolsportact.org.au,1,High School South,South Weston
47,Fraser Primary School,177 Tillyard Drive,NULL,Fraser,1,2615,school.information@fraserps.act.edu.au,6205 7866,6/24/2016 1:10,info@schoolsportact.org.au,1,High School North,Belconnen
48,The Gailee School,Kambah Pool Rd,NULL,Kambah,1,2902,admin@commsatwork.org,6296 3410,2/26/2016 5:15,peter.ciceran@naxikku.com,1,NULL,NULL
49,Garran Primary School,Gilmore Crescent,NULL,Garran,1,2605,info@garranps.act.edu.au,6205 5844,6/24/2016 1:32,info@schoolsportact.org.au,1,High School South,South Weston
50,Gilmore Primary School,Heagney Crescent,NULL,Gilmore,1,2905,info@gilmoreps.act.edu.au,6205 7844,6/24/2016 1:44,info@schoolsportact.org.au,1,High School South,Tuggeranong
51,Giralang Primary School,Atalumba Close,NULL,Giralang,1,2617,info@giralangps.act.edu.au,6205 5866,6/24/2016 1:11,info@schoolsportact.org.au,1,High School North,Belconnen
52,Gold Creek School (P-10),Kelleway Avenue,NULL,Nicholls,1,2913,info@goldcreek.act.edu.au,6205 1814,6/24/2016 1:20,info@schoolsportact.org.au,1,High School North,North Gungahlin
54,Inactive Gold Creek School (Junior Site) do not use,Kelleway Avenue,NULL,Nicholls,1,2913, info@goldcreek.act.edu.au,6205 2955,4/4/2016 5:51,operations@schoolsportact.org.au,0,NULL,NULL
55,Good Shepherd Primary School,Burdekin Avenue,NULL,Amaroo,1,2914,office.goodshepherd@cg.catholic.edu.au,6255 7888,6/24/2016 1:20,info@schoolsportact.org.au,1,High School North,North Gungahlin
56,Gordon Primary School,Knoke Avenue,NULL,Gordon,1,2906,info@gordonps.act.edu.au,6205 5955,6/24/2016 1:45,info@schoolsportact.org.au,1,High School South,Tuggeranong
57,Gowrie Primary School,Jeffries St,NULL,Gowrie,1,2904,gowp@gowrieps.act.edu.au,6205 5955,6/24/2016 1:45,info@schoolsportact.org.au,1,High School South,Tuggeranong
59,Gungahlin College,23 Gozzard Street,NULL,Gungahlin,1,2912,gungahlincollege@ed.act.edu.au,6142 1000,2/26/2016 5:23,peter.ciceran@naxikku.com,1,NULL,NULL
60,Harrison School,20 Wimmera Street,NULL,Harrison,1,2914,info@harrison.act.edu.au,6142 2200,6/24/2016 1:21,info@schoolsportact.org.au,1,High School North,North Gungahlin
61,Hawker College,Murranji Street,NULL,Hawker,1,2614,info@hawkerc.act.edu.au,6142 0355,2/26/2016 5:25,peter.ciceran@naxikku.com,1,NULL,NULL
62,Hawker Primary School,Erldunda Circuit,NULL,Hawker,1,2614,info@hawkerps.act.edu.au,6205 7733,6/24/2016 1:11,info@schoolsportact.org.au,1,High School North,Belconnen
63,Holy Family Primary School,Castleton Crescent,NULL,Gowrie,1,2904,office.holyfamily@cg.catholic.edu.au,6292 1222,6/24/2016 1:45,info@schoolsportact.org.au,1,High School South,Tuggeranong
64,Holy Spirit Primary School,Kelleway Avenue,NULL,Nicholls,1,2913,office.holyspirit@cg.catholic.edu.au,6241 8640,6/24/2016 1:21,info@schoolsportact.org.au,1,High School North,North Gungahlin
65,Holy Trinity Primary School,18 Theodore Street,NULL,Curtin,1,2605,Office.HolyTrinity@cg.catholic.edu.au,6281 4811,6/24/2016 1:33,info@schoolsportact.org.au,1,High School South,South Weston
66,Hughes Primary School,Groom Street,NULL,Hughes,1,2605,info_hughesps@ed.act.edu.au,6205 5699,6/24/2016 1:33,info@schoolsportact.org.au,1,High School South,South Weston
67,St John Paul II College,1021 Gungahlin Drive,NULL,Nicholls,1,2913,office.jpc@cg.catholic.edu.au,6163 4800,2/26/2016 5:31,peter.ciceran@naxikku.com,1,NULL,NULL
68,UC High School Kaleen,Baldwin Drive,NULL,Kaleen,1,2617,UCHSKaleen.information@ed.act.edu.au,6205 5811,2/26/2016 16:32,peter.ciceran@naxikku.com,1,NULL,NULL
69,Kaleen Primary School,19 Ashburton Circuit,NULL,Kaleen,1,2617,admin@kaleenps.act.edu.au,6205 5888,6/24/2016 1:11,info@schoolsportact.org.au,1,High School North,Belconnen
70,Kingsford Smith School,100 Starke Street,NULL,Holt,1,2615,info@kss.act.edu.au,6207 4455,6/24/2016 1:11,info@schoolsportact.org.au,1,High School North,Belconnen
71,UC Senior Secondary College Lake Ginninderra,2 Emu Bank,NULL,Belconnen,1,2617,LakeG@ed.act.edu.au,6142 0222,2/26/2016 5:35,peter.ciceran@naxikku.com,1,NULL,NULL
72,Lake Tuggeranong College,123 Cowlishaw Street,NULL,Greenway,1,2900,info@ltc.act.edu.au,6142 3660,2/26/2016 5:38,peter.ciceran@naxikku.com,1,NULL,NULL
73,Lanyon High School,Heidelberg Street,NULL,Conder,1,2906,school.information@lanyonhs.act.edu.au,6205 7676,6/24/2016 11:50,info@schoolsportact.org.au,1,High School South,Tuggeranong
74,Latham Primary School,O'Loghlen Street,NULL,Latham,1,2615,E-info@lathamps.act.edu.au,6142 0077,6/24/2016 1:12,info@schoolsportact.org.au,1,High School North,Belconnen
76,Lyneham High School,61 Goodwin Street,NULL,Lyneham,1,2602,LynehamHS@ed.act.edu.au,6205 6399,5/11/2018 2:13,operations@schoolsportact.org.au,1,High School North,Belconnen
77,Lyneham Primary School,Brigalow Street,NULL,Lyneham,1,2602,info@lynehamps.act.edu.au,6205 6511,6/24/2016 1:12,info@schoolsportact.org.au,1,High School North,Belconnen
79,Macgregor Primary School,Hirschfeld Crescent,NULL,Macgregor,1,2615,info@macgregorps.act.edu.au,6205 7511,6/24/2016 1:13,info@schoolsportact.org.au,1,High School North,Belconnen
80,Macquarie Primary School,46 Bennelong Crescent,NULL,Macquarie,1,2614,admin@macquarieps.act.edu.au,6205 6077,6/24/2016 1:13,info@schoolsportact.org.au,1,High School North,Belconnen
81,Majura Primary School,101 Knox Street,NULL,Watson,1,2602,admin@majuraps.act.edu.au,6205 5711,6/24/2016 1:22,info@schoolsportact.org.au,1,High School North,North Gungahlin
82,Maribyrnong Primary School,Alberga Street,NULL,Kaleen,1,2617,NULL,6205 5933,6/24/2016 1:13,info@schoolsportact.org.au,1,High School North,Belconnen
84,Marist College (Senior School),27 Marr Street,NULL,Pearce,1,2607,headmaster@mcc.act.gov.au ,6298 7200,3/17/2016 5:13,operations@schoolsportact.org.au,1,NULL,NULL
85,Inactive Mackillop (do not use),Ellerston Avenue,NULL,Isabella Plains,1,2905,info@mackillop.act.edu.au,6209 0100,3/21/2016 22:46,operations@schoolsportact.org.au,0,NULL,NULL
86,St Mary MacKillop College,Mackinnon Street,NULL,Wanniassa,1,2903,info@mackillop.act.edu.au,6209 0100,6/24/2016 1:53,info@schoolsportact.org.au,1,High School South,Tuggeranong
88,Mawson Primary School,Ainsworth Street,NULL,Mawson,1,2607,info@mawsonps.act.edu.au,6205 8033,6/24/2016 1:52,info@schoolsportact.org.au,1,High School South,Tuggeranong
89,Melba Copland Secondary School (College Campus),Copland Drive,NULL,Melba,1,2615,melbacss@mcss.act.edu.au,6142 0300 ,3/10/2016 23:38,operations@schoolsportact.org.au,0,NULL,NULL
90,Melba Copland Secondary School,Conley Drive,NULL,Melba,1,2615,melbacss@mcss.act.edu.au,6142 0333 ,3/10/2016 23:39,operations@schoolsportact.org.au,1,NULL,NULL
91,Melrose High School,Marr Street,NULL,Pearce,1,2607,frontoffice@melrosehs.act.edu.au,6205 7588,2/28/2016 23:00,peter.ciceran@naxikku.com,1,NULL,NULL
92,Merici College,Wise Street,NULL,Braddon,1,2612,principal.merici@merici.act.edu.au,6243 4100,6/24/2016 1:29,info@schoolsportact.org.au,1,High School North,North Gungahlin
93,Miles Franklin Primary School,Alderman Street,NULL,Evatt,1,2617,info@mfps.act.edu.au,6205 7533,6/24/2016 1:13,info@schoolsportact.org.au,1,High School North,Belconnen
94,Monash Primary School,Corlette Crescent,NULL,Monash,1,2904,info@monashps.act.edu.au,6205 7555,6/24/2016 1:52,info@schoolsportact.org.au,1,High School South,Tuggeranong
95,Mother Teresa Primary School,40 Wimmera Street,NULL,Harrison,1,2914,office.mts@cg.catholic.edu.au,6241 5604,6/24/2016 1:28,info@schoolsportact.org.au,1,High School North,North Gungahlin
96,Mount Rogers Primary School,Alfred Hill Drive,NULL,Melba,1,2615,info@mtrogers.act.edu.au,6205 8066,6/24/2016 1:14,info@schoolsportact.org.au,1,High School North,Belconnen
98,Namadgi School,141 O'Halloran Circuit,NULL,Kambah,1,2902,school.information@namadgi.act.edu,6142 0900,6/24/2016 1:53,info@schoolsportact.org.au,1,High School South,Tuggeranong
99,Narrabundah College,Jerrabomberra Avenue,NULL,Narrabundah,1,2604,info@narrabundahc.act.edu.au,6142 3200,2/28/2016 23:15,peter.ciceran@naxikku.com,1,NULL,NULL
100,Neville Bonner Primary School,Mabo Boulevard,NULL,Bonner,1,2914,nevillebonnerps@ed.act.edu.au,6142 1201,6/24/2016 1:28,info@schoolsportact.org.au,1,High School North,North Gungahlin
101,Ngunnawal Primary School,Unaipon Avenue,NULL,Ngunnawal,1,2913,info@ngunnawalps.act.edu.au,6205 8182,6/24/2016 1:28,info@schoolsportact.org.au,1,High School North,North Gungahlin
102,North Ainslie Primary School,122 Majura Avenue,NULL,Ainslie,1,2602,admin@nthainslieps.act.edu.au,6205 6533,6/24/2016 1:28,info@schoolsportact.org.au,1,High School North,North Gungahlin
103,Orana Steiner School,Unwin Place,NULL,Weston Creek,1,2611,info@oranaschool.com,6288 4283,6/24/2016 11:35,info@schoolsportact.org.au,1,High School South,South Weston
104,Palmerston Primary School,Kosciuszko Avenue,NULL,Palmerston,1,2913,info@palmdps.act.edu.au,6205 7241,6/24/2016 1:29,info@schoolsportact.org.au,1,High School North,North Gungahlin
105,Radford College (Senior),1 College Street,NULL,Bruce,1,2617,reception@radford.act.edu.au,6162 6200,3/22/2016 3:27,operations@schoolsportact.org.au,1,NULL,NULL
106,Red Hill Primary School,Astrolabe Street,NULL,Red Hill,1,2603,info@redhillps.act.edu.au,6205 7144,6/24/2016 1:35,info@schoolsportact.org.au,1,High School South,South Weston
107,Richardson Primary School,May Gibbs Close,NULL,Richardson,1,2905,info@richardsonps.act.edu.au,6142 3630,6/24/2016 1:53,info@schoolsportact.org.au,1,High School South,Tuggeranong
108,Rosary Primary School,31/39 Higinbotham Street,NULL,Watson,1,2602,office.rosaryps@cg.catholic.edu.au,6248 0010,6/24/2016 1:29,info@schoolsportact.org.au,1,High School North,North Gungahlin
109,Sacred Heart Primary School,29 Murphy Street,NULL,Pearce,1,2607,office.sacredheartpearce@cg.catholic.edu.au,6286 2443,6/24/2016 1:35,info@schoolsportact.org.au,1,High School South,South Weston
110,St Anthony's Primary School, 161 Wheeler Crescent,NULL,Wanniassa,1,2903,office.stanthonyswanniassa@cg.catholic.edu.au,6231 4022,6/24/2016 1:53,info@schoolsportact.org.au,1,High School South,Tuggeranong
111,St Bede's Primary School,Hicks Street,NULL,Red Hill,1,2603,office.stbedes@cg.catholic.edu.au,6295 6559,6/24/2016 1:36,info@schoolsportact.org.au,1,High School South,South Weston
113,St Benedict's Primary School,10 Tallara Parkway,NULL,Narrabundah,1,2604,office.stbenedicts@cg.catholic.edu.au,6295 8027,6/24/2016 1:36,info@schoolsportact.org.au,1,High School South,South Weston
114,St Clare of Assisi Primary School,Box Hill Avenue & Heidelberg Street,NULL,Conder,1,2906,office.stclaresconder@cg.catholic.edu.au,6294 1860,6/24/2016 11:53,info@schoolsportact.org.au,1,High School South,Tuggeranong
115,St Clare's College,1 McMillan Crescent,NULL,Griffith,1,2603,the.principal@stcc.act.edu.au,6260 9400,6/24/2016 1:39,info@schoolsportact.org.au,1,High School South,South Weston
116,St Edmund's College,110 Canberra Avenue,NULL,Griffith,1,2603,reception@stedmunds.act.edu.au,6295 3598,6/24/2016 1:39,info@schoolsportact.org.au,1,High School South,South Weston
117,St Francis of Assisi Primary School,120 Casey Crescent,NULL,Calwell,1,2905,office.stfranciscalwell@cg.catholic.edu.au,6292 4500,6/24/2016 1:53,info@schoolsportact.org.au,1,High School South,Tuggeranong
118,St Francis Xavier College,Barnard Circuit,NULL,Florey,1,2615,school.office@sfx.act.edu.au,6258 1055,2/28/2016 23:35,peter.ciceran@naxikku.com,1,NULL,NULL
119,St John the Apostle Primary School,Pawsey Circuit,NULL,Florey,1,2615,office.sjaps@cg.catholic.edu.au,6258 3592,6/24/2016 1:15,info@schoolsportact.org.au,1,High School North,Belconnen
120,St John Vianney's Primary School,Namatjira Drive,NULL,Waramanga,1,2611,office.sjv@cg.catholic.edu.au,6288 2383,6/24/2016 11:39,info@schoolsportact.org.au,1,High School South,South Weston
121,St Joseph's Primary School,Boronia Drive,NULL,O'Connor,1,2602,Office.sjo@cg.catholic.edu.au,6248 9818,6/24/2016 1:30,info@schoolsportact.org.au,1,High School North,North Gungahlin
122,St Jude's Primary School,49 Mulley Street,NULL,Holder,1,2611,office.stjudes@cg.catholic.edu.au,6288 7688,6/24/2016 1:40,info@schoolsportact.org.au,1,High School South,South Weston
123,St Matthew's Primary School,Stutchbury Street,NULL,Page,1,2614,office.stmatts@cg.catholic.edu.au,6254 2653,6/24/2016 1:15,info@schoolsportact.org.au,1,High School North,Belconnen
124,St Michael's Primary School,2 Tyrrell Circuit,NULL,Kaleen,1,2617,office.stmichaelsps@cg.catholic.edu.au,6241 4022,6/24/2016 1:15,info@schoolsportact.org.au,1,High School North,Belconnen
125,St Monica's Primary School,Moynihan Street,NULL,Evatt,1,2617,office.stmonicas@cg.catholic.edu.au,6258 5105,6/24/2016 1:16,info@schoolsportact.org.au,1,High School North,Belconnen
127,Sts Peter and Paul Primary School,59 Wisdom Street,NULL,Garran,1,2605,office.stpandp@cg.catholic.edu.au,6281 1932,6/24/2016 1:40,info@schoolsportact.org.au,1,High School South,South Weston
128,St Thomas Aquinas Primary School,25 Lhotsky Street,NULL,Charnwood,1,2615,office.staquinas@cg.catholic.edu.au,6258 4077,6/24/2016 1:54,info@schoolsportact.org.au,1,High School North,Belconnen
129,St Thomas More's Primary School,24 White Crescent,NULL,Campbell,1,2612,office.stmore@cg.catholic.edu.au,6249 8869,6/24/2016 1:30,info@schoolsportact.org.au,1,High School North,North Gungahlin
130,St Thomas the Apostle Primary School,39 Boddington Crescent,NULL,Kambah,1,2902,office.sttapkambah@cg.catholic.edu.au,6231 4144,6/24/2016 1:54,info@schoolsportact.org.au,1,High School South,Tuggeranong
132,St Vincent's Primary School,3 Bindel Place,NULL,Aranda,1,2614,office.svdp@cg.catholic.edu.au,6251 2442,6/24/2016 1:16,info@schoolsportact.org.au,1,High School North,Belconnen
133,Mount Stromlo High School,Badimara Street,NULL,Waramanga,1,2611,Stromlo.Enquiries@ed.act.edu.au,6142 3444,6/24/2016 1:41,info@schoolsportact.org.au,1,High School South,South Weston
134,Taylor Primary School,Marconi Crescent,NULL,Kambah,1,2902,admin@taylorps.act.edu.au,6142 3000,6/24/2016 1:54,info@schoolsportact.org.au,1,High School South,Tuggeranong
135,Telopea Park School,25 New South Wales Crescent,NULL,Barton,1,2600,tps@telopea.act.edu.au,6142 3388,6/24/2016 1:41,info@schoolsportact.org.au,1,High School South,South Weston
136,The Woden School,127 Denison Street,NULL,Deakin,1,2600,tws@thewodens.act.edu.au,6205 5966,2/29/2016 0:08,peter.ciceran@naxikku.com,1,NULL,NULL
137,Theodore Primary School,Lawrence Wackett Crescent,NULL,Theodore,1,2905,info@theops.act.edu.au,6142 3100,6/24/2016 1:54,info@schoolsportact.org.au,1,High School South,Tuggeranong
138,Torrens Primary School,Ritchie Street,NULL,Torrens,1,2607,admin@torrensps.act.edu.au,6205 7411,6/24/2016 1:55,info@schoolsportact.org.au,1,High School South,Tuggeranong
139,Trinity Christian School,34 McBryde Crescent,NULL,Wanniassa,1,2903,enquiries@tcs.act.edu.au,6231 4177,6/24/2016 1:55,info@schoolsportact.org.au,1,High School South,Tuggeranong
140,Turner Primary School,32 Condamine Street,NULL,Turner,1,2612, tnrp@turners.act.edu.au,6205 6500,6/24/2016 1:16,info@schoolsportact.org.au,1,High School North,Belconnen
141,Wanniassa Hills Primary School,Langdon Avenue,NULL,Wanniassa,1,2903,info@whps.act.edu.au,6205 7466,6/24/2016 1:55,info@schoolsportact.org.au,1,High School South,Tuggeranong
142,Wanniassa School,Sternberg Crescent,NULL,Wanniassa,1,2903,info@wans.act.edu.au,6205 7566,6/15/2016 6:31,operations@schoolsportact.org.au,1,NULL,NULL
143,Inactive Wanniassa,Wheeler Crescent ,NULL,Wanniassa,1,2903,NULL,6205 6200,6/15/2016 6:32,operations@schoolsportact.org.au,0,NULL,NULL
144,Weetangera Primary School,Southwell Street,NULL,Weetangera,1,2614,info@weetangeraps.act.edu.au,6205 7488,6/24/2016 1:16,info@schoolsportact.org.au,1,High School North,Belconnen
145,Yarralumla Primary School,Loftus Street,NULL,Yarralumla,1,2600,info@yarralumlaps.act.edu.au,6205 5766,6/24/2016 1:41,info@schoolsportact.org.au,1,High School South,South Weston
146,Blue Gum School,114 Maitland Street,NULL,Hackett,1,2602,bluegumschoolsport@gmail.com, 6230 6776,6/24/2016 11:18,info@schoolsportact.org.au,1,High School North,North Gungahlin
147,Canberra Girls Grammar School (Junior),Melbourne Avenue,NULL,Deakin,1,2600,juniorschool@cggs.act.edu.au,02 6202 6411,6/24/2016 11:30,info@schoolsportact.org.au,1,High School South,South Weston
148,Marist College (Junior School),NULL,NULL,NULL,1,NULL,juniorschool@mcc.act.edu.au,NULL,6/24/2016 1:34,info@schoolsportact.org.au,1,High School South,South Weston
149,Canberra Grammar School (Junior),NULL,NULL,NULL,1,NULL,NULL,NULL,6/24/2016 1:31,info@schoolsportact.org.au,1,High School South,South Weston
150,Home Educated,NULL,NULL,NULL,1,NULL,NULL,NULL,3/22/2016 9:55,operations@schoolsportact.org.au,1,NULL,NULL
151,Radford College (Junior),NULL,NULL,NULL,1,NULL,NULL,NULL,6/24/2016 1:14,info@schoolsportact.org.au,1,High School North,Belconnen
152,Taqwa School,4/55 Crofts Cres,NULL,Spence ,1,2615,02 6181 6870,NULL,5/1/2018 13:45,business@schoolsportact.org.au,1,NULL,Belconnen
153,Margaret Hendry School,Horse Park Dr. ACT,NULL,NULL,1,NULL,NULL,NULL,2/26/2019 4:08,aaronjpowell31@gmail.com,1,NULL,North Gungahlin
