id,Title
1299,"18&U Baseball"
1300,"17&U Girls Softball"
1301,"17&U Boys Softball"
8708,"18&U Tennis"
8710,"TEST TRIAL - do not register"
8764,"Trial 1"
8789,"12&U Belconnen Boys Cricket - Test"
8790,"12&U Girls Belconnen Touch"
8791,"12&U Girls Belconnen Hockey"
8792,"12&U Boys Primary Belconnen Hockey"
8793,"ACT 17&U Baseball"
8794,"12&U Boys Primary Belconnen Football"
8795,"12&U Boys South Weston Hockey"
8796,"12&U Girls South Weston Hockey"
8797,"12&U Boys South Weston Football"
8798,"12&U Girls Tuggeranong Hockey"
8799,"12&U Boys South Weston AFL"
8800,"12&U Girls South Weston AFL"
8801,"12&U Girls South Weston Touch"
8802,"12&U Boys Tuggeranong Hockey"
8803,"12&U Boys Primary Belconnen Touch"
8804,"12&U Boys North Gungahlin Hockey"
8805,"12&U Boys South Weston Rugby Union"
8806,"12&U Girls North Gungahlin Hockey"
8807,"12&U Boys South Weston Touch Football"
8808,"12&U Boys North Gungahlin Rugby Union"
8809,"12&U Boys North Gungahlin Touch"
8810,"ACT 17&U Boys Water Polo"
8811,"ACT 17&U Girls Water Polo"
8812,"12&U Girls North Gungahlin Football"
8813,"12&U Girls Belconnen Netball"
8814,"12&U Boys Primary Belconnen Basketball"
8815,"12&U Boys Primary North/Gungahlin Football Group 1 (by school)"
8816,"12&U Boys Primary North/Gungahlin Football Group 2 (by school)"
8817,"12&U Girls Belconnen Football"
8818,"12&U Girls Belconnen Basketball"
8819,"ACT Orienteering"
8820,"12&U Boys Tuggeranong Football"
8821,"12&U Girls Tuggeranong Football"
8822,"12&U Boys Tuggeranong Basketball"
8823,"12&U Girls Tuggeranong Basketball"
8824,"12&U Boys Tuggeranong Touch"
8825,"12&U Girls Tuggeranong Touch"
8826,"12&U Girls South Weston Netball"
8827,"12&U Girls South Weston Football"
8828,"12&U Boys Primary North Gungahlin Basketball"
8829,"12&U Girls South Weston Basketball"
8830,"12&U Girls North Gungahlin Touch"
8831,"ACT 16&U Boys Hockey"
8832,"ACT 12&U Boys Football"
8833,"12&U Girls North Gungahlin Netball"
8834,"ACT 15&U Boys AFL"
8835,"12&U Tuggeranong Girls Netball"
8836,"ACT 12&U Girls Football"
8837,"12&U Boys South Weston Basketball"
8838,"ACT 12&U Boys Hockey"
8839,"ACT 12&U Girls Hockey"
8840,"ACT 15&U Boys Touch Football"
8841,"ACT 15&U Girls Touch Football"
8842,"ACT 12&U Boys Touch Football"
8843,"ACT 12&U Girls Touch Football"
8844,"ACT 12&U Boys AFL"
8845,"12&U Girls North Gungahlin Basketball"
8846,"ACT 12&U Girls Netball"
8847,"ACT 15&U Girls Netball"
8848,"ACT 19&U Girls Football"
8849,"ACT 12&U Boys Basketball"
8850,"ACT 18&U Boys Basketball"
8851,"ACT 17&U Golf"
8852,"ACT 12&U Rugby League"
8853,"ACT 18&U Girls Basketball"
8854,"ACT 12&U Girls Basketball"
8855,"ACT 16&U Girls Hockey"
8856,"ACT 15&U Girls Volleyball"
8857,"ACT  15&U Girls Volleyball"
8858,"ACT 15&U Boys Volleyball"
8859,"ACT 19&U Boys Football"
8860,"ACT 13&O Cross Country"
8861,"ACT Diving"
8862,"ACT 12&U Golf"
8863,"ACT 12&U Cross Country"
8864,"ACT Swimming"
8865,"ACT 12&U Tennis"
8866,"ACT 12&U Girls Softball"
8867,"ACT 12&U Boys Softball"
8868,"ACT 12&U Track and Field"
8869,"ACT 12&U Girls Cricket"
8870,"ACT 12&U Boys Cricket"
8871,"ACT 15&U Boys Cricket"
8872,"ACT 17&U Baseball"
8873,"ACT 17&U Boys Softball"
8874,"ACT 17&U Girls Softball"
8875,"12&U Boys Primary South/Weston Softball"
8876,"12&U Girls Primary South/Weston Softball"
8877,"12&U Boys Primary North/Gungahlin Softball"
8878,"12&U Girls Primary Belconnen Softball"
8879,"ACT 18&U Tennis"
8880,"ACT 19&U Triathlon"
8881,"12&U Girls Primary North/Gungahlin Softball"
8882,"ACT 17&U Boys Water Polo"
8883,"ACT 17&U Girls Water Polo"
8884,"12&U Primary North/Gungahlin Rugby League"
8885,"12&U Boys Primary Belconnen Softball"
8886,"12&U Boys Primary Tuggeranong Softball"
8887,"12&U Girls Primary Tuggeranong Softball"
8888,"12&U Primary Tuggeranong Rugby League"
8889,"12&U Primary Tuggeranong AFL"
8890,"12&U Boys Primary Tuggeranong Touch"
8891,"12&U Girls Primary Tuggeranong Touch"
8892,"12&U Primary South/Weston Rugby League"
8893,"ACT 16&U Boys Hockey"
8894,"12&U Girls Primary North/Gungahlin Touch"
8895,"12&U Boys Primary North/Gungahlin Touch"
8896,"12&U Primary Belconnen Rugby League"
8897,"12&U Primary Belconnen Netball"
8898,"ACT Diving"
8899,"12&U Primary Tuggeranong Netball"
8900,"12&U Primary Boys South/Weston Football"
8901,"12&U Primary Girls South/Weston Touch"
8902,"ACT 18&U Girls Basketball"
8903,"ACT 18&U Boys Basketball"
8904,"12&U Primary Girls Belconnen Football"
8905,"12&U Primary North/Gungahlin AFL"
8906,"12&U Primary Girls Tuggeranong Hockey"
8907,"12&U Primary Boys Belconnen Touch"
8908,"12&U Primary Girls Belconnen Touch"
8909,"12&U Primary Boys Tuggeranong Hockey"
8910,"ACT 12&U Golf"
8911,"ACT 17&U Golf"
8912,"12&U Primary North/Gungahlin Girls Football"
8913,"12&U Primary South/Weston Netball"
8914,"12&U Primary Belconnen AFL"
8915,"ACT 16&U Girls Hockey"
8916,"12&U Primary Boys South/Weston Touch"
8917,"12&U Primary Boys North/Gungahlin Hockey"
8918,"12&U Primary Girls North/Gungahlin Hockey"
8919,"ACT 15&U Boys AFL"
8920,"12&U Primary Boys Belconnen Hockey"
8921,"12&U Primary Girls Belconnen Hockey"
8922,"ACT 12&U Rugby League"
8923,"12&U Primary Girls South/Weston Football"
8924,"ACT 12&U Boys Softball"
8925,"ACT 12&U Girls Softball"
8926,"ACT 12&U  Boys Football"
8927,"12&U Primary South/Weston AFL"
8928,"12&U Primary South/Weston Boys Hockey"
8929,"12&U Primary South/Weston Girls Hockey"
8930,"ACT 12&U Girls Football"
8931,"ACT Swimming"
8932,"12&U Primary North/Gungahlin Netball"
8933,"ACT 15&U Girls AFL"
8934,"12&U Primary Girls South/Weston Basketball"
8935,"ACT 15&U Girls Touch"
8936,"ACT 15&U Boys Touch"
8937,"12&U Primary Boys Tuggeranong Football"
8938,"12&U Primary Girls Tuggeranong Football"
8939,"12&U Primary Boys Belconnen Football"
8940,"12&U Primary North/Gungahlin Boys Football"
8941,"12&U Primary North/Gungahlin Girls Basketball"
8942,"ACT 12&U Boys Touch"
8943,"ACT 12&U Girls Touch"
8944,"ACT 12&U Boys Hockey"
8945,"ACT 12&U Girls Hockey"
8946,"12&U Primary Girls Belconnen Basketball"
8947,"ACT 12&U Girls Basketball"
8948,"ACT and Regional Results"
8949,"ACT 12&U Boys Basketball"
8950,"ACT Orienteering"
8951,"12&U Primary Boys Belconnen Basketball"
8952,"ACT 12&U AFL"
8953,"12&U Primary Boys South/Weston Basketball"
8954,"ACT 15&U Boys Volleyball"
8955,"ACT 15&U Girls Volleyball"
8956,"12&U Primary Boys Tuggeranong Basketball"
8957,"12&U Primary Girls Tuggeranong Basketball"
8958,"ACT 12&U Cross Country"
8959,"ACT 19&U Cross Country"
8960,"ACT 12&U Netball"
8961,"12&U Primary North/Gungahlin Boys Basketball"
8962,"ACT 12&U Tennis"
8963,"ACT 15&U Netball"
8964,"12&U Primary Girls South/Weston Cricket"
8965,"ACT 18&U Girls Football"
8966,"12&U Primary Boys North/Gungahlin Cricket"
8967,"12&U Primary Boys South/Weston Cricket"
8968,"12&U Primary Girls North/Gungahlin Cricket"
8969,"12&U Primary Belconnen Boys Cricket"
8970,"12&U Primary Girls Belconnen Cricket"
8971,"ACT Netball Officials"
8972,"ACT 12&U Track and Field"
8973,"ACT 16&U Boys Football"
8974,"12&U Primary Girls Tuggeranong Cricket"
8975,"12&U Primary Boys Tuggeranong Cricket"
8976,"ACT 12&U Boys Cricket"
8977,"ACT 12&U Girls Cricket"
8978,"ACT Boys 15&U Cricket"
8979,"ACT 17&U Baseball"
8980,"ACT 17&U Girls Softball"
8981,"ACT 17&U Boys Water Polo"
8982,"ACT 17&U Boys Softball"
8983,"ACT 17&U Girls Water Polo"
8984,"ACT 18&U Tennis"
8985,"ACT Diving"
8986,"12&U Primary South/Weston Rugby League"
8987,"12&U Primary South Weston Australian Football"
8988,"12&U Primary North/Gungahlin Rugby League"
8989,"ACT 12&U Boys Basketball"
8990,"12&U Primary Tuggeranong  Rugby League"
8991,"12&U Primary South/Weston Boys Hockey"
8992,"12&U Primary South/Weston Girls Hockey"
8993,"12&U Primary Belconnen Rugby League"
8994,"12&U Primary Tuggeranong Australian Football"
8995,"12&U Primary Girls Tuggeranong Netball"
8996,"12&U Primary Girls Tuggeranong Touch"
8997,"12&U Primary Boys Tuggeranong Touch"
8998,"12&U Primary Boys North/ Gungahlin Touch"
8999,"12&U Primary Girls North/ Gungahlin Touch"
9000,"12&U Primary Girls South/Weston Touch"
9001,"12&U Primary Boys South/Weston Basketball"
9002,"12&U Primary Girls Belconnen Touch"
9003,"12&U Primary Girls South/ Weston Netball"
9004,"12&U Primary Tuggeranong Boys Basketball"
9005,"12&U Primary Tuggeranong Girls Basketball"
9006,"12&U Primary Boys Belconnen Football (Soccer)"
9007,"ACT 15&U Girls Australian Football"
9008,"ACT 12&U Boys Football (Soccer)"
9009,"ACT 12&U Australian Football"
9010,"12&U Primary Boys Belconnen Touch"
9011,"ACT 15&U Boys Australian Football"
9012,"12&U Primary Girls Belconnen Netball"
9013,"12&U Primary Boys South Weston Touch"
9014,"12&U Primary Girls South/ Weston Football (Soccer)"
9015,"ACT 18&U Boys Basketball"
9016,"ACT 16&U Boys Hockey"
9017,"12&U Primary Girls Tuggeranong Hockey"
9018,"12&U Primary Belconnen Australian Football"
9019,"12&U Primary Boys Belconnen Hockey"
9020,"12&U Primary Girls Belconnen Hockey"
9021,"12&U ACT Rugby League"
9022,"ACT 12&U Girls Hockey"
9023,"ACT 12&U Boys Hockey"
9024,"ACT 15&U Netball"
9025,"12&U Primary North/ Gungahlin Netball"
9026,"ACT 16&U Girls Hockey"
9027,"ACT Swimming"
9028,"12&U Primary North/Gungahlin Australian Football"
9029,"12&U Primary Boys South Weston Football (Soccer)"
9030,"ACT 12&U Girls Basketball"
9031,"12&U Primary Girls North/ Gungahlin Football (Soccer)"
9032,"12&U Primary Girls South/ Weston Basketball"
9033,"ACT 18&U Girls Basketball"
9034,"ACT 12&U Girls Netball"
9035,"ACT 15&U Girls Touch Football"
9036,"12&U Primary Boys Tuggeranong Hockey"
9037,"ACT 12&U Golf"
9038,"ACT 17&U Golf"
9039,"12&U Primary boys North/ Gungahlin Football (soccer)"
9040,"12&U Primary Boys North/ Gungahlin Hockey"
9041,"12&U Primary Girls North/ Gungahlin Hockey"
9042,"ACT 15&U Boys Touch Football"
9043,"12&U Primary Girls Tuggeranong Football (Soccer)"
9044,"12&U Primary Boys Tuggeranong Football (Soccer)"
9045,"ACT 12&U Girls Football (Soccer)"
9046,"12&U Primary Girls Belconnen Football (Soccer)"
9047,"ACT 12&U Boys Touch Football"
9048,"ACT 12&U Girls Touch Football"
9049,"12&U Primary Girls North/ Gungahin Basketball"
9050,"12&U Primary Boys Belconnen Basketball"
9051,"ACT 15&U Boys Volleyball"
9052,"ACT 15&U Girls Volleyball"
9053,"ACT 18&U Girls Football (Soccer)"
9054,"12&U Primary Girls Belconnen Basketball"
9055,"12&U Primary North Gungahlin Boys Basketball"
9056,"ACT 16&U Boys Football (Soccer)"
9057,"ACT 12&U Cross Country"
9058,"ACT 19&U Cross Country"
9059,"Primary Softball Day"
9060,"ACT 12&U Tennis"
9061,"ACT 12&U Netball Officials"
9062,"12&U  North/Gungahlin Primary Boys Cricket"
9063,"12&U Primary Girls Cricket"
9064,"12&U Primary Boys South /Weston Cricket"
9065,"12&U Primary Boys Belconnen Cricket"
9066,"12&U Primary Boys Tuggeranong Cricket"
9067,"ACT 12&U Girls Softball"
9068,"ACT 12&U Boys Softball"
9069,"ACT 12&U Boys Cricket"
9070,"ACT 12&U Girls Cricket"
9071,"2018 ACT Track and Field"
9072,"ACT 18&U Tennis"
9073,"ACT 18&U Baseball"
9074,"2018 ACT Swimming"
9075,"2019 Cross Country"
9076,"ACT Diving"
9077,"ACT 17&U Boys Softball"
9078,"ACT 17&U Girls Softball"
9079,"ACT 12&U Track & Field"
9080,"ACT 18&U Girls Basketball"
9081,"ACT 12&U Boys Basketball"
9082,"ACT 12&U Tennis"
9083,"ACT 18&U Golf"
9084,"ACT 12&U Golf"
9085,"ACT 12&U Boys Touch Football"
9086,"ACT 15&U Boys Touch Football"
9087,"ACT 15&U Girls Touch Football"
9088,"ACT 12&U Girls Touch Football"
9089,"ACT 12&U Girls Softball"
9090,"ACT 12&U Boys Softball"
9091,"ACT 12&U Rugby League"
9092,"ACT 18&U Girls Football (Soccer)"
9093,"ACT 12&U Boys Football (Soccer)"
9094,"ACT  Swimming  State Team"
9095,"ACT 15&U Boys Australian Football"
9096,"ACT 16&U Boys Hockey"
9097,"ACT 16&U Girls Hockey"
9098,"ACT 15&U Netball"
9099,"ACT 12&U Girls Football (soccer)"
9100,"ACT 15&U Girls Australian Football"
9101,"ACT 12&U Australian Football"
9102,"ACT 12&U Boys Hockey"
9103,"ACT 12&U Girls Hockey"
9104,"ACT 12&U Girls Basketball"
9105,"ACT 12&U Netball"
9106,"ACT 15&U Boys Volleyball"
9107,"ACT 15&U Girls Volleyball"
9108,"ACT 16&U Boys Football (Soccer)"
9109,"ACT 19&U Cross Country"
9110,"ACT 12&U Cross Country"
9111,"ACT 16&U Hockey Officials"
9112,"ACT 12&U Cricket"
9113,"ACT 12&U Girls Cricket"
9114,"ACT 12&U Boys Cricket"
9115,"2019 Track & Field Results"
9116,"Juan Pablo Contreras"
