﻿SchoolId,Name,AddressLine1,AddressLine2,Suburb,StateId,PostCode,Contact,Phone,LastUpdated,LastUpdatedBy,IsActive,HighSchoolRegionId,PrimarySchoolRegionId
1,Ainslie School,Donaldson Street,NULL,Braddon,1,2612,info@ainslies.act.edu.au,6142 3060,2016-06-24 01:17:17.580,info@schoolsportact.org.au,1,1,4
5,Aranda Primary School,1 Banambila Street,NULL,Aranda,1,2614,info@arandaps.act.edu.au,6205 5977,2016-06-24 01:09:44.060,info@schoolsportact.org.au,1,1,3
6,Charnwood-Dunlop School,"Bettington Circuit ",NULL,Charnwood,1,2615,info@charnwoodps.act.edu.au,6205 7322,2016-06-24 01:10:00.677,info@schoolsportact.org.au,1,1,3
7,Alfred Deakin High School,Denison Street,NULL,Deakin,1,2600,info@adhs.act.edu.au,6142 3888,2016-02-26 01:40:05.870,peter.ciceran@naxikku.com,1,NULL,NULL
9,Amaroo School,135 Katherine Avenue,NULL,Amaroo,1,2914,"info@amaroos.act.edu.au ",Amaroo School,2016-06-24 01:18:36.603,info@schoolsportact.org.au,1,1,4
10,Arawang Primary School,Nemarang Crescent,NULL,Weston Creek,1,2611,NULL,6205 6877,2016-06-24 01:30:45.083,info@schoolsportact.org.au,1,2,5
11,Belconnen High School,Murranji Street,NULL,Hawker,1,2614,info_blch@ed.act.edu.au,6205 6844,2016-06-24 02:03:45.727,info@schoolsportact.org.au,1,1,NULL
12,Black Mountain School,48 Dryandra Street,NULL,O'Connor,1,2602,blackmtnschool@ed.act.edu.au,6205 6377,2016-02-26 01:46:19.083,peter.ciceran@naxikku.com,1,NULL,NULL
13,Bonython Primary School,64 Hurtle Avenue,NULL,Bonython,1,2905,bonythonps@ed.act.edu.au,6205 6565,2016-06-24 01:41:54.953,info@schoolsportact.org.au,1,2,6
14,Brindabella Christian College,136 Brigalow Street,NULL,Lyneham,1,2602,bcc@bcc.act.edu.au,6247 4644,2016-06-24 01:19:04.300,info@schoolsportact.org.au,1,1,4
15,Inactive Burgmann Anglican School (Valley Campus) do not use,Gungahlin Drive & The Valley Avenue,NULL,Gungahlin,1,2912,NULL,6255 7700,2016-04-04 05:51:50.410,operations@schoolsportact.org.au,0,NULL,NULL
16,"Burgmann Anglican School ",Corner Francis Forde Boulevard & Hurrell Streets,NULL,Forde,1,2914,NULL,6204 3299,2016-06-24 01:20:10.917,info@schoolsportact.org.au,1,1,4
17,Calwell High School,111 Casey Crescent,NULL,Calwell,1,2905,info@calwellhs.act.edu.au,6205 6833,2016-02-26 01:52:21.613,peter.ciceran@naxikku.com,1,NULL,NULL
18,Calwell Primary School,Downard Street,NULL,Calwell,1,2905,contact@calwellps.act.edu.au,6205 6911,2017-03-07 23:48:08.120,coordinator@schoolsportact.org.au,1,2,6
19,Campbell High School,"Treloar Crescent ",NULL,Campbell,1,2612,info@campbellhs.act.edu.au,6142 3166,2016-02-26 01:56:08.350,peter.ciceran@naxikku.com,1,NULL,NULL
20,Campbell Primary School,Chauvel Street,NULL,Campbell,1,2612,campbellps@ed.act.edu.au,6142 3580,2016-06-24 01:20:21.777,info@schoolsportact.org.au,1,1,4
21,Canberra College,2 Launceston Street,NULL,Phillip,1,2606,info@canberrac.act.edu.au,6142 3288,2016-02-26 02:16:11.867,peter.ciceran@naxikku.com,1,NULL,NULL
22,Canberra Girls Grammar School (Senior),Melbourne Avenue,NULL,Deakin,1,2600,cggs@cggs.act.edu.au,6202 6400,2016-03-17 11:32:22.000,operations@schoolsportact.org.au,1,NULL,NULL
23,Canberra Grammar School (Senior),40 Monaro Crescent,NULL,Red Hill,1,2603,enquiries@cgs.act.edu.au,6260 9700,2016-03-21 03:47:18.063,operations@schoolsportact.org.au,1,NULL,NULL
24,Canberra High School,Bindubi Street,NULL,Macquarie,1,2614,info@canberrahs.act.edu.au,6205 7000,2016-02-26 02:20:53.030,peter.ciceran@naxikku.com,1,NULL,NULL
25,Inactive Caroline Chisholm School (Senior Campus) do not use,108 Hambidge Crescent,NULL,Chisholm,1,2905,info@chisholm.act.edu.au,6142 3550,2016-04-04 05:51:27.107,operations@schoolsportact.org.au,0,NULL,NULL
26,Caroline Chisholm School (P-10),Hambidge Crescent,NULL,Chisholm,1,2905,info@chisholm.act.edu.au,6142 3555,2016-06-24 01:44:17.397,info@schoolsportact.org.au,1,2,6
27,Chapman Primary School,Perry Drive,NULL,Chapman,1,2611,school.information@chapmanps.act.edu.au,6205 7300,2016-06-24 01:31:26.180,info@schoolsportact.org.au,1,2,5
29,Charles Conder Primary School,134 Tom Roberts Avenue,NULL,Conder,1,2906," info@conderps.act.edu.au",6142 0177,2016-06-24 01:44:09.327,info@schoolsportact.org.au,1,2,6
30,Charles Weston School,80 Woodberry Avenue,NULL,Coombs,1,2611,coombsps@ed.act.edu.au,6142 0404 ,2016-06-24 01:31:36.940,info@schoolsportact.org.au,1,2,5
31,Covenant Christian School Canberra,1 Woodcock Drive,NULL,Gordon,1,2906,NULL,6294 2455,2016-06-24 01:44:27.010,info@schoolsportact.org.au,1,2,6
32,Curtin Primary School,Theodore Street,NULL,Curtin,1,2605,info@curtinps.act.edu.au,6205 5622,2016-06-24 01:31:49.407,info@schoolsportact.org.au,1,2,5
33,Daramalan College,121 Cowper Street,NULL,Dickson,1,2602,info@daramalan.act.edu.au,6245 6300,2016-02-26 05:03:31.283,peter.ciceran@naxikku.com,1,NULL,NULL
36,Dickson College,Phillip Avenue,NULL,Dickson,1,2602,info@dicksonc.act.edu.au,6142 0140,2016-02-26 05:05:28.070,peter.ciceran@naxikku.com,1,NULL,NULL
37,Duffy Primary School,"47 Burrinjuck Crescent ",NULL,Duffy,1,NULL,info@duffyps.act.edu.au,6205 6022,2016-06-24 01:32:00.750,info@schoolsportact.org.au,1,2,5
38,Emmaus Christian School,73 Davenport Street,NULL,Dickson,1,2602,emmaus@emmaus.act.edu.au,6247 7151,2016-06-24 01:20:32.937,info@schoolsportact.org.au,1,1,4
39,Erindale College,115 McBryde Cres,NULL,Wanniassa,1,2903,info@erindalec.act.edu.au,6142 2977,2016-02-26 05:08:50.070,peter.ciceran@naxikku.com,1,NULL,NULL
40,Evatt Primary School,Heydon Crescent,NULL,Evatt,1,2617,info@evattps.act.edu.au,6205 5999,2016-06-24 01:10:12.387,info@schoolsportact.org.au,1,1,3
41,Fadden Primary School,Hanlon Crescent,NULL,Fadden,1,2904,info@faddenps.act.edu.au,6205 6011,2016-06-24 01:44:35.230,info@schoolsportact.org.au,1,2,6
43,Farrer Primary School,1 Lambrigg Street,NULL,Farrer,1,2607,info@farrerps.act.edu.au,6205 7911,2017-03-02 22:15:38.630,info@schoolsportact.org.au,1,2,6
45,Florey Primary School,Ratcliffe Crescent,NULL,Florey,1,2615,admin@floreyps.act.edu.au,6205 8011,2016-06-24 01:10:19.973,info@schoolsportact.org.au,1,1,3
46,Forrest Primary School,Hobart Avenue,NULL,Forrest,1,2603," info@forrestps.act.edu.au",6205 5644,2016-06-24 01:32:32.107,info@schoolsportact.org.au,1,2,5
47,Fraser Primary School,177 Tillyard Drive,NULL,Fraser,1,2615,school.information@fraserps.act.edu.au,6205 7866,2016-06-24 01:10:31.753,info@schoolsportact.org.au,1,1,3
48,The Gailee School,Kambah Pool Rd,NULL,Kambah,1,2902,admin@commsatwork.org,6296 3410,2016-02-26 05:15:21.830,peter.ciceran@naxikku.com,1,NULL,NULL
49,Garran Primary School,Gilmore Crescent,NULL,Garran,1,2605,info@garranps.act.edu.au,6205 5844,2016-06-24 01:32:53.677,info@schoolsportact.org.au,1,2,5
50,Gilmore Primary School,Heagney Crescent,NULL,Gilmore,1,2905,info@gilmoreps.act.edu.au,6205 7844,2016-06-24 01:44:48.387,info@schoolsportact.org.au,1,2,6
51,Giralang Primary School,Atalumba Close,NULL,Giralang,1,2617,info@giralangps.act.edu.au,6205 5866,2016-06-24 01:11:01.113,info@schoolsportact.org.au,1,1,3
52,Gold Creek School (P-10),Kelleway Avenue,NULL,Nicholls,1,2913,info@goldcreek.act.edu.au,6205 1814,2016-06-24 01:20:50.383,info@schoolsportact.org.au,1,1,4
54,Inactive Gold Creek School (Junior Site) do not use,Kelleway Avenue,NULL,Nicholls,1,2913," info@goldcreek.act.edu.au",6205 2955,2016-04-04 05:50:59.537,operations@schoolsportact.org.au,0,NULL,NULL
55,Good Shepherd Primary School,Burdekin Avenue,NULL,Amaroo,1,2914,office.goodshepherd@cg.catholic.edu.au,6255 7888,2016-06-24 01:20:56.767,info@schoolsportact.org.au,1,1,4
56,Gordon Primary School,Knoke Avenue,NULL,Gordon,1,2906,info@gordonps.act.edu.au,6205 5955,2016-06-24 01:45:00.423,info@schoolsportact.org.au,1,2,6
57,Gowrie Primary School,Jeffries St,NULL,Gowrie,1,2904,gowp@gowrieps.act.edu.au,6205 5955,2016-06-24 01:45:29.460,info@schoolsportact.org.au,1,2,6
59,Gungahlin College,23 Gozzard Street,NULL,Gungahlin,1,2912,gungahlincollege@ed.act.edu.au,6142 1000,2016-02-26 05:23:49.713,peter.ciceran@naxikku.com,1,NULL,NULL
60,Harrison School,20 Wimmera Street,NULL,Harrison,1,2914,info@harrison.act.edu.au,6142 2200,2016-06-24 01:21:05.870,info@schoolsportact.org.au,1,1,4
61,Hawker College,Murranji Street,NULL,Hawker,1,2614,info@hawkerc.act.edu.au,6142 0355,2016-02-26 05:25:26.870,peter.ciceran@naxikku.com,1,NULL,NULL
62,Hawker Primary School,Erldunda Circuit,NULL,Hawker,1,2614,info@hawkerps.act.edu.au,6205 7733,2016-06-24 01:11:23.900,info@schoolsportact.org.au,1,1,3
63,Holy Family Primary School,Castleton Crescent,NULL,Gowrie,1,2904,office.holyfamily@cg.catholic.edu.au,6292 1222,2016-06-24 01:45:52.700,info@schoolsportact.org.au,1,2,6
64,Holy Spirit Primary School,Kelleway Avenue,NULL,Nicholls,1,2913,office.holyspirit@cg.catholic.edu.au,6241 8640,2016-06-24 01:21:33.403,info@schoolsportact.org.au,1,1,4
65,Holy Trinity Primary School,18 Theodore Street,NULL,Curtin,1,2605,Office.HolyTrinity@cg.catholic.edu.au,6281 4811,2016-06-24 01:33:21.990,info@schoolsportact.org.au,1,2,5
66,Hughes Primary School,Groom Street,NULL,Hughes,1,2605,info_hughesps@ed.act.edu.au,6205 5699,2016-06-24 01:33:32.613,info@schoolsportact.org.au,1,2,5
67,St John Paul II College,1021 Gungahlin Drive,NULL,Nicholls,1,2913,office.jpc@cg.catholic.edu.au,6163 4800,2016-02-26 05:31:30.480,peter.ciceran@naxikku.com,1,NULL,NULL
68,UC High School Kaleen,Baldwin Drive,NULL,Kaleen,1,2617,UCHSKaleen.information@ed.act.edu.au,6205 5811,2016-02-26 16:32:55.000,peter.ciceran@naxikku.com,1,NULL,NULL
69,Kaleen Primary School,19 Ashburton Circuit,NULL,Kaleen,1,2617,admin@kaleenps.act.edu.au,6205 5888,2016-06-24 01:11:37.680,info@schoolsportact.org.au,1,1,3
70,Kingsford Smith School,100 Starke Street,NULL,Holt,1,2615,info@kss.act.edu.au,6207 4455,2016-06-24 01:11:47.637,info@schoolsportact.org.au,1,1,3
71,UC Senior Secondary College Lake Ginninderra,2 Emu Bank,NULL,Belconnen,1,2617,LakeG@ed.act.edu.au,6142 0222,2016-02-26 05:35:37.877,peter.ciceran@naxikku.com,1,NULL,NULL
72,Lake Tuggeranong College,123 Cowlishaw Street,NULL,Greenway,1,2900,info@ltc.act.edu.au,6142 3660,2016-02-26 05:38:33.593,peter.ciceran@naxikku.com,1,NULL,NULL
73,Lanyon High School,Heidelberg Street,NULL,Conder,1,2906,school.information@lanyonhs.act.edu.au,6205 7676,2016-06-24 11:50:37.000,info@schoolsportact.org.au,1,2,6
74,Latham Primary School,O'Loghlen Street,NULL,Latham,1,2615,E-info@lathamps.act.edu.au,6142 0077,2016-06-24 01:12:01.347,info@schoolsportact.org.au,1,1,3
76,Lyneham High School,61 Goodwin Street,NULL,Lyneham,1,2602,LynehamHS@ed.act.edu.au,6205 6399,2018-05-11 02:13:11.073,operations@schoolsportact.org.au,1,1,3
77,Lyneham Primary School,Brigalow Street,NULL,Lyneham,1,2602,info@lynehamps.act.edu.au,6205 6511,2016-06-24 01:12:14.227,info@schoolsportact.org.au,1,1,3
79,Macgregor Primary School,Hirschfeld Crescent,NULL,Macgregor,1,2615,info@macgregorps.act.edu.au,6205 7511,2016-06-24 01:13:16.243,info@schoolsportact.org.au,1,1,3
80,Macquarie Primary School,46 Bennelong Crescent,NULL,Macquarie,1,2614,admin@macquarieps.act.edu.au,6205 6077,2016-06-24 01:13:21.983,info@schoolsportact.org.au,1,1,3
81,Majura Primary School,101 Knox Street,NULL,Watson,1,2602,admin@majuraps.act.edu.au,6205 5711,2016-06-24 01:22:48.850,info@schoolsportact.org.au,1,1,4
82,Maribyrnong Primary School,Alberga Street,NULL,Kaleen,1,2617,NULL,6205 5933,2016-06-24 01:13:30.550,info@schoolsportact.org.au,1,1,3
84,Marist College (Senior School),27 Marr Street,NULL,Pearce,1,2607,"headmaster@mcc.act.gov.au ",6298 7200,2016-03-17 05:13:24.410,operations@schoolsportact.org.au,1,NULL,NULL
85,Inactive Mackillop (do not use),Ellerston Avenue,NULL,Isabella Plains,1,2905,info@mackillop.act.edu.au,6209 0100,2016-03-21 22:46:19.907,operations@schoolsportact.org.au,0,NULL,NULL
86,St Mary MacKillop College,Mackinnon Street,NULL,Wanniassa,1,2903,info@mackillop.act.edu.au,6209 0100,2016-06-24 01:53:54.360,info@schoolsportact.org.au,1,2,6
88,Mawson Primary School,Ainsworth Street,NULL,Mawson,1,2607,info@mawsonps.act.edu.au,6205 8033,2016-06-24 01:52:21.147,info@schoolsportact.org.au,1,2,6
89,Melba Copland Secondary School (College Campus),Copland Drive,NULL,Melba,1,2615,melbacss@mcss.act.edu.au,6142 0300 ,2016-03-10 23:38:53.947,operations@schoolsportact.org.au,0,NULL,NULL
90,Melba Copland Secondary School,Conley Drive,NULL,Melba,1,2615,melbacss@mcss.act.edu.au,6142 0333 ,2016-03-10 23:39:06.133,operations@schoolsportact.org.au,1,NULL,NULL
91,Melrose High School,Marr Street,NULL,Pearce,1,2607,frontoffice@melrosehs.act.edu.au,6205 7588,2016-02-28 23:00:26.567,peter.ciceran@naxikku.com,1,NULL,NULL
92,Merici College,Wise Street,NULL,Braddon,1,2612,principal.merici@merici.act.edu.au,6243 4100,2016-06-24 01:29:25.283,info@schoolsportact.org.au,1,1,4
93,Miles Franklin Primary School,Alderman Street,NULL,Evatt,1,2617,info@mfps.act.edu.au,6205 7533,2016-06-24 01:13:41.520,info@schoolsportact.org.au,1,1,3
94,Monash Primary School,Corlette Crescent,NULL,Monash,1,2904,info@monashps.act.edu.au,6205 7555,2016-06-24 01:52:41.137,info@schoolsportact.org.au,1,2,6
95,Mother Teresa Primary School,40 Wimmera Street,NULL,Harrison,1,2914,office.mts@cg.catholic.edu.au,6241 5604,2016-06-24 01:28:01.547,info@schoolsportact.org.au,1,1,4
96,Mount Rogers Primary School,Alfred Hill Drive,NULL,Melba,1,2615,info@mtrogers.act.edu.au,6205 8066,2016-06-24 01:14:47.393,info@schoolsportact.org.au,1,1,3
98,Namadgi School,141 O'Halloran Circuit,NULL,Kambah,1,2902,school.information@namadgi.act.edu,6142 0900,2016-06-24 01:53:00.280,info@schoolsportact.org.au,1,2,6
99,Narrabundah College,Jerrabomberra Avenue,NULL,Narrabundah,1,2604,info@narrabundahc.act.edu.au,6142 3200,2016-02-28 23:15:06.620,peter.ciceran@naxikku.com,1,NULL,NULL
100,Neville Bonner Primary School,Mabo Boulevard,NULL,Bonner,1,2914,nevillebonnerps@ed.act.edu.au,6142 1201,2016-06-24 01:28:12.717,info@schoolsportact.org.au,1,1,4
101,Ngunnawal Primary School,Unaipon Avenue,NULL,Ngunnawal,1,2913,info@ngunnawalps.act.edu.au,6205 8182,2016-06-24 01:28:24.517,info@schoolsportact.org.au,1,1,4
102,North Ainslie Primary School,122 Majura Avenue,NULL,Ainslie,1,2602,admin@nthainslieps.act.edu.au,6205 6533,2016-06-24 01:28:39.110,info@schoolsportact.org.au,1,1,4
103,Orana Steiner School,Unwin Place,NULL,Weston Creek,1,2611,info@oranaschool.com,6288 4283,2016-06-24 11:35:24.000,info@schoolsportact.org.au,1,2,5
104,Palmerston Primary School,Kosciuszko Avenue,NULL,Palmerston,1,2913,info@palmdps.act.edu.au,6205 7241,2016-06-24 01:29:48.790,info@schoolsportact.org.au,1,1,4
105,Radford College (Senior),1 College Street,NULL,Bruce,1,2617,reception@radford.act.edu.au,6162 6200,2016-03-22 03:27:32.987,operations@schoolsportact.org.au,1,NULL,NULL
106,Red Hill Primary School,Astrolabe Street,NULL,Red Hill,1,2603,info@redhillps.act.edu.au,6205 7144,2016-06-24 01:35:43.457,info@schoolsportact.org.au,1,2,5
107,Richardson Primary School,May Gibbs Close,NULL,Richardson,1,2905,info@richardsonps.act.edu.au,6142 3630,2016-06-24 01:53:10.110,info@schoolsportact.org.au,1,2,6
108,Rosary Primary School,31/39 Higinbotham Street,NULL,Watson,1,2602,office.rosaryps@cg.catholic.edu.au,6248 0010,2016-06-24 01:29:57.860,info@schoolsportact.org.au,1,1,4
109,Sacred Heart Primary School,29 Murphy Street,NULL,Pearce,1,2607,office.sacredheartpearce@cg.catholic.edu.au,6286 2443,2016-06-24 01:35:57.087,info@schoolsportact.org.au,1,2,5
110,St Anthony's Primary School, 161 Wheeler Crescent,NULL,Wanniassa,1,2903,office.stanthonyswanniassa@cg.catholic.edu.au,6231 4022,2016-06-24 01:53:19.787,info@schoolsportact.org.au,1,2,6
111,St Bede's Primary School,Hicks Street,NULL,Red Hill,1,2603,office.stbedes@cg.catholic.edu.au,6295 6559,2016-06-24 01:36:17.607,info@schoolsportact.org.au,1,2,5
113,St Benedict's Primary School,10 Tallara Parkway,NULL,Narrabundah,1,2604,office.stbenedicts@cg.catholic.edu.au,6295 8027,2016-06-24 01:36:33.747,info@schoolsportact.org.au,1,2,5
114,St Clare of Assisi Primary School,Box Hill Avenue & Heidelberg Street,NULL,Conder,1,2906,office.stclaresconder@cg.catholic.edu.au,6294 1860,2016-06-24 11:53:28.000,info@schoolsportact.org.au,1,2,6
115,St Clare's College,1 McMillan Crescent,NULL,Griffith,1,2603,the.principal@stcc.act.edu.au,6260 9400,2016-06-24 01:39:29.093,info@schoolsportact.org.au,1,2,5
116,St Edmund's College,110 Canberra Avenue,NULL,Griffith,1,2603,reception@stedmunds.act.edu.au,6295 3598,2016-06-24 01:39:42.840,info@schoolsportact.org.au,1,2,5
117,St Francis of Assisi Primary School,120 Casey Crescent,NULL,Calwell,1,2905,office.stfranciscalwell@cg.catholic.edu.au,6292 4500,2016-06-24 01:53:44.550,info@schoolsportact.org.au,1,2,6
118,St Francis Xavier College,Barnard Circuit,NULL,Florey,1,2615,school.office@sfx.act.edu.au,6258 1055,2016-02-28 23:35:49.220,peter.ciceran@naxikku.com,1,NULL,NULL
119,St John the Apostle Primary School,Pawsey Circuit,NULL,Florey,1,2615,office.sjaps@cg.catholic.edu.au,6258 3592,2016-06-24 01:15:21.960,info@schoolsportact.org.au,1,1,3
120,St John Vianney's Primary School,Namatjira Drive,NULL,Waramanga,1,2611,office.sjv@cg.catholic.edu.au,6288 2383,2016-06-24 11:39:57.000,info@schoolsportact.org.au,1,2,5
121,St Joseph's Primary School,Boronia Drive,NULL,O'Connor,1,2602,Office.sjo@cg.catholic.edu.au,6248 9818,2016-06-24 01:30:09.307,info@schoolsportact.org.au,1,1,4
122,St Jude's Primary School,49 Mulley Street,NULL,Holder,1,2611,office.stjudes@cg.catholic.edu.au,6288 7688,2016-06-24 01:40:09.017,info@schoolsportact.org.au,1,2,5
123,St Matthew's Primary School,Stutchbury Street,NULL,Page,1,2614,office.stmatts@cg.catholic.edu.au,6254 2653,2016-06-24 01:15:33.400,info@schoolsportact.org.au,1,1,3
124,St Michael's Primary School,2 Tyrrell Circuit,NULL,Kaleen,1,2617,office.stmichaelsps@cg.catholic.edu.au,6241 4022,2016-06-24 01:15:47.777,info@schoolsportact.org.au,1,1,3
125,St Monica's Primary School,Moynihan Street,NULL,Evatt,1,2617,office.stmonicas@cg.catholic.edu.au,6258 5105,2016-06-24 01:16:11.543,info@schoolsportact.org.au,1,1,3
127,Sts Peter and Paul Primary School,59 Wisdom Street,NULL,Garran,1,2605,office.stpandp@cg.catholic.edu.au,6281 1932,2016-06-24 01:40:39.227,info@schoolsportact.org.au,1,2,5
128,St Thomas Aquinas Primary School,25 Lhotsky Street,NULL,Charnwood,1,2615,office.staquinas@cg.catholic.edu.au,6258 4077,2016-06-24 01:54:27.757,info@schoolsportact.org.au,1,1,3
129,St Thomas More's Primary School,24 White Crescent,NULL,Campbell,1,2612,office.stmore@cg.catholic.edu.au,6249 8869,2016-06-24 01:30:24.440,info@schoolsportact.org.au,1,1,4
130,St Thomas the Apostle Primary School,39 Boddington Crescent,NULL,Kambah,1,2902,office.sttapkambah@cg.catholic.edu.au,6231 4144,2016-06-24 01:54:16.137,info@schoolsportact.org.au,1,2,6
132,St Vincent's Primary School,3 Bindel Place,NULL,Aranda,1,2614,office.svdp@cg.catholic.edu.au,6251 2442,2016-06-24 01:16:31.760,info@schoolsportact.org.au,1,1,3
133,Mount Stromlo High School,Badimara Street,NULL,Waramanga,1,2611,Stromlo.Enquiries@ed.act.edu.au,6142 3444,2016-06-24 01:41:03.477,info@schoolsportact.org.au,1,2,5
134,Taylor Primary School,Marconi Crescent,NULL,Kambah,1,2902,admin@taylorps.act.edu.au,6142 3000,2016-06-24 01:54:36.153,info@schoolsportact.org.au,1,2,6
135,Telopea Park School,25 New South Wales Crescent,NULL,Barton,1,2600,tps@telopea.act.edu.au,6142 3388,2016-06-24 01:41:18.367,info@schoolsportact.org.au,1,2,5
136,The Woden School,127 Denison Street,NULL,Deakin,1,2600,tws@thewodens.act.edu.au,6205 5966,2016-02-29 00:08:09.797,peter.ciceran@naxikku.com,1,NULL,NULL
137,Theodore Primary School,Lawrence Wackett Crescent,NULL,Theodore,1,2905,info@theops.act.edu.au,6142 3100,2016-06-24 01:54:50.057,info@schoolsportact.org.au,1,2,6
138,Torrens Primary School,Ritchie Street,NULL,Torrens,1,2607,admin@torrensps.act.edu.au,6205 7411,2016-06-24 01:55:03.657,info@schoolsportact.org.au,1,2,6
139,Trinity Christian School,34 McBryde Crescent,NULL,Wanniassa,1,2903,enquiries@tcs.act.edu.au,6231 4177,2016-06-24 01:55:12.687,info@schoolsportact.org.au,1,2,6
140,Turner Primary School,32 Condamine Street,NULL,Turner,1,2612," tnrp@turners.act.edu.au",6205 6500,2016-06-24 01:16:45.557,info@schoolsportact.org.au,1,1,3
141,Wanniassa Hills Primary School,Langdon Avenue,NULL,Wanniassa,1,2903,info@whps.act.edu.au,6205 7466,2016-06-24 01:55:22.327,info@schoolsportact.org.au,1,2,6
142,Wanniassa School,Sternberg Crescent,NULL,Wanniassa,1,2903,info@wans.act.edu.au,6205 7566,2016-06-15 06:31:14.947,operations@schoolsportact.org.au,1,NULL,NULL
143,Inactive Wanniassa,"Wheeler Crescent ",NULL,Wanniassa,1,2903,NULL,6205 6200,2016-06-15 06:31:59.937,operations@schoolsportact.org.au,0,NULL,NULL
144,Weetangera Primary School,Southwell Street,NULL,Weetangera,1,2614,info@weetangeraps.act.edu.au,6205 7488,2016-06-24 01:16:55.227,info@schoolsportact.org.au,1,1,3
145,Yarralumla Primary School,Loftus Street,NULL,Yarralumla,1,2600,info@yarralumlaps.act.edu.au,6205 5766,2016-06-24 01:41:37.673,info@schoolsportact.org.au,1,2,5
146,Blue Gum School,114 Maitland Street,NULL,Hackett,1,2602,bluegumschoolsport@gmail.com," 6230 6776",2016-06-24 11:18:49.000,info@schoolsportact.org.au,1,1,4
147,Canberra Girls Grammar School (Junior),Melbourne Avenue,NULL,Deakin,1,2600,juniorschool@cggs.act.edu.au,02 6202 6411,2016-06-24 11:30:58.000,info@schoolsportact.org.au,1,2,5
148,Marist College (Junior School),NULL,NULL,NULL,1,NULL,juniorschool@mcc.act.edu.au,NULL,2016-06-24 01:34:52.170,info@schoolsportact.org.au,1,2,5
149,Canberra Grammar School (Junior),NULL,NULL,NULL,1,NULL,NULL,NULL,2016-06-24 01:31:14.203,info@schoolsportact.org.au,1,2,5
150,Home Educated,NULL,NULL,NULL,1,NULL,NULL,NULL,2016-03-22 09:55:24.000,operations@schoolsportact.org.au,1,NULL,NULL
151,Radford College (Junior),NULL,NULL,NULL,1,NULL,NULL,NULL,2016-06-24 01:14:59.063,info@schoolsportact.org.au,1,1,3
152,Taqwa School,4/55 Crofts Cres,NULL,"Spence ",1,2615,02 6181 6870,NULL,2018-05-01 13:45:50.000,business@schoolsportact.org.au,1,NULL,3
153,Margaret Hendry School,Horse Park Dr. ACT,NULL,NULL,1,NULL,NULL,NULL,2019-02-26 04:08:54.620,aaronjpowell31@gmail.com,1,NULL,4
